life_traits
…
sfg = safely(Get_traits)

species_lt2018<- spp %>% 
  mutate(life_traits = map2(genus, species, ~(sfg(Genus=.x, Species=.y)))) %>%
  mutate(fish_life_worked = map(life_traits, 'error') %>% map_lgl(is.null)) %>%
  filter(fish_life_worked) %>%
  mutate(life_traits = map(life_traits, 'result')) %>%
  unnest() %>% 
  mutate(sciname = paste(genus, species))

See results

as.tibble (species_lt2018) 

## # A tibble: 12,368 x 18
##    am_sid genus species kingdom phylum class order family fish_life_worked   Loo
##    <chr>  <chr> <chr>   <chr>   <chr>  <chr> <chr> <chr>  <lgl>            <dbl>
##  1 Fis-2 Chei furcat Animal Chord Acti Belo Exoco TRUE              26.3
##  2 Fis-2 Cory hippur Animal Chord Acti Perc Coryp TRUE             145. 
##  3 Fis-2 Cory equise Animal Chord Acti Perc Coryp TRUE              80.4
##  4 Fis-2 Angu anguil Animal Chord Acti Angu Angui TRUE              73.2
##  5 Fis-2 Argy affinis Animal Chord Acti Stom Stern TRUE              10.5
##  6 Fis-1 Mela berico Animal Chord Acti Osme Bathy TRUE              22.1
##  7 Fis-2 Acan soland Animal Chord Acti Perc Scomb TRUE             123. 
##  8 Fis-2 Alep ferox   Animal Chord Acti Aulo Alepi TRUE              28.4
##  9 Fis-2 Gast melamp Animal Chord Acti Perc Scomb TRUE              75.8
## 10 Fis-2 Kats pelamis Animal Chord Acti Perc Scomb TRUE              89.9
## #  with 12,358 more rows, and 8 more variables: K <dbl>, Winfinity <dbl>,
## #   tmax <dbl>, tm <dbl>, M <dbl>, Lm <dbl>, Temperature <dbl>, sciname <chr>
…
