traits_matrix
…
species_lt2018 <- read_csv(here("data", "species_lt2018_dropped.csv"))
unique (species_lt2018$am_sid) %>% length () #12363

## [1] 12363

sum(is.na(species_lt2018$am_sid))

## [1] 0

Reading the table we got from Fishbase

fishbase_traits <- read_csv (here("data", "fishbase_traits.csv"))
as.tibble (fishbase_traits)

## # A tibble: 12,204 x 56
##       X1 SpecCode Species sciname bodyshape demerspelag depthrangeshall
##    <dbl>    <dbl> <chr>   <chr>   <chr>     <chr>                  <dbl>
##  1     1     7799 Pseuda Pseuda fusiform reef-assoc                4
##  2     2     7878 Parupe Parupe fusiform reef-assoc                3
##  3     3     8011 Jaydia Jaydia fusiform benthopela               66
##  4     4     8012 Apogon Apogon short an reef-assoc                1
##  5     5     5656 Elloch Elloch fusiform reef-assoc                0
##  6     6     8040 Aspido Aspido elongated reef-assoc               NA
##  7     7     5643 Thalas Thalas fusiform reef-assoc                0
##  8     8     3809 Apodic Apodic eel-like  demersal                   0
##  9     9     8123 Astero Astero short an reef-assoc                1
## 10    10     4238 Glypto Glypto short an demersal                   0
## #  with 12,194 more rows, and 49 more variables: depthrangedeep <dbl>,
## #   vulnerability <dbl>, length <dbl>, importance <chr>, pricecateg <chr>,
## #   pd50 <dbl>, troph <dbl>, setrop <dbl>, sizemin <dbl>, sizemax <dbl>,
## #   fishlength <lgl>, Epipelagic <dbl>, Mesopelagic <dbl>, Bathypelagic <dbl>,
## #   Abyssopelagic <dbl>, Hadopelagic <dbl>, FeedingType <chr>, DietTroph <dbl>,
## #   DietSeTroph <dbl>, FoodTroph <dbl>, FoodSeTroph <dbl>, FoodRemark <chr>,
## #   AddRems <chr>, Benthic <dbl>, Sessile <dbl>, Mobile <dbl>, Demersal <dbl>,
## #   Endofauna <dbl>, Pelagic <dbl>, fecuntype <lgl>, fecun_min <dbl>,
## #   fecun_max <dbl>, OperculumPresent <dbl>, BodyShapeI <chr>,
…
unique (fishbase_traits$sciname) %>% length () #12204

## [1] 12204

sum(is.na(fishbase_traits$sciname)) #0

## [1] 0

Reading the table from Beukhof et al 2019 https://doi.pangaea.de/10.1594/PANGAEA.900866 A trait collection of marine fish species from North Atlantic and Northeast Pacific continental shelf seas. Sourced: https://opentraits.org/datasets.html

north_traits <- read_csv (here("data", "TraitCollectionFishNAtlanticNEPacificContShelf_Beukhofetal2019.csv"))
as.tibble (north_traits)

## # A tibble: 6,352 x 40
##    family genus species taxonomic.rank taxon   LME   FAO habitat
##    <chr>  <chr> <chr>   <chr>          <chr> <dbl> <dbl> <chr>  
##  1 Acant Acan bahian S              Acan     6    31 reef-a
##  2 Acant Acan chirur S              Acan     5    31 reef-a
##  3 Acant Acan coerul S              Acan     6    21 reef-a
##  4 Acant Acan coerul S              Acan     6    31 reef-a
##  5 Achir Achi lineat S              Achi     5    31 reef-a
##  6 Achir Achi lineat S              Achi     6    31 reef-a
##  7 Achir Gymn melas   S              Gymn     5    31 demers
##  8 Achir Gymn melas   S              Gymn     6    31 demers
##  9 Achir Gymn texae   S              Gymn     5    31 demers
## 10 Achir Trin inscri S              Trin     5    31 demers
## #  with 6,342 more rows, and 32 more variables: reference.habitat <chr>,
## #   feeding.mode <chr>, reference.feeding.mode <chr>, tl <dbl>, level.tl <chr>,
## #   reference.tl <chr>, body.shape <chr>, fin.shape <chr>, AR <dbl>,
## #   level.AR <chr>, reference.AR <chr>, offspring.size <dbl>,
## #   level.offspring.size <chr>, reference.offspring.size <chr>,
## #   spawning.type <chr>, reference.spawning.type <chr>, age.maturity <dbl>,
## #   level.age.maturity <chr>, reference.age.maturity <chr>, fecundity <dbl>,
## #   level.fecundity <chr>, reference.fecundity <chr>, length.infinity <dbl>,
## #   growth.coefficient <dbl>, level.growth <chr>, reference.growth <chr>,
…
We first join FishLife and Fishbase tables

traits_matrix_lt_fishbase <- left_join (fishbase_traits, species_lt2018, by= "sciname")

as.tibble (traits_matrix_lt_fishbase)

## # A tibble: 12,204 x 78
##     X1.x SpecCode Species sciname bodyshape demerspelag depthrangeshall
##    <dbl>    <dbl> <chr>   <chr>   <chr>     <chr>                  <dbl>
##  1     1     7799 Pseuda Pseuda fusiform reef-assoc                4
##  2     2     7878 Parupe Parupe fusiform reef-assoc                3
##  3     3     8011 Jaydia Jaydia fusiform benthopela               66
##  4     4     8012 Apogon Apogon short an reef-assoc                1
##  5     5     5656 Elloch Elloch fusiform reef-assoc                0
##  6     6     8040 Aspido Aspido elongated reef-assoc               NA
##  7     7     5643 Thalas Thalas fusiform reef-assoc                0
##  8     8     3809 Apodic Apodic eel-like  demersal                   0
##  9     9     8123 Astero Astero short an reef-assoc                1
## 10    10     4238 Glypto Glypto short an demersal                   0
## #  with 12,194 more rows, and 71 more variables: depthrangedeep <dbl>,
## #   vulnerability <dbl>, length <dbl>, importance <chr>, pricecateg <chr>,
## #   pd50 <dbl>, troph <dbl>, setrop <dbl>, sizemin <dbl>, sizemax <dbl>,
## #   fishlength <lgl>, Epipelagic <dbl>, Mesopelagic <dbl>, Bathypelagic <dbl>,
## #   Abyssopelagic <dbl>, Hadopelagic <dbl>, FeedingType <chr>, DietTroph <dbl>,
## #   DietSeTroph <dbl>, FoodTroph <dbl>, FoodSeTroph <dbl>, FoodRemark <chr>,
## #   AddRems <chr>, Benthic <dbl>, Sessile <dbl>, Mobile <dbl>, Demersal <dbl>,
## #   Endofauna <dbl>, Pelagic <dbl>, fecuntype <lgl>, fecun_min <dbl>,
## #   fecun_max <dbl>, OperculumPresent <dbl>, BodyShapeI <chr>,
…
